..............
----------------------------------------------------------------------
Ran 14 tests in 0.046s

OK
Name             Stmts   Miss Branch BrPart  Cover   Missing
------------------------------------------------------------
Collatz.py          35      0     14      0   100%
TestCollatz.py      64      0      0      0   100%
------------------------------------------------------------
TOTAL               99      0     14      0   100%
