1 10 20
100 200 125
201 210 89
900 1000 174
238966 238179 275
387290 387126 255
410521 410451 312
786838 786312 300
537636 537511 258
795978 795219 331
160273 160985 370
663611 663245 261
539257 539869 302
585748 585088 359
638815 638638 248
561151 561761 284
336355 336113 366
468908 468710 351
543453 543096 315
784560 784709 256
986178 986643 290
261575 261250 332
674942 674769 230
76955 76882 232
662321 662104 248
325515 325741 260
256632 256029 332
282304 282892 314
648419 648882 323
299760 299542 221
512386 512252 258
310012 310572 371
500508 500205 364
191868 191297 329
481697 481579 276
226325 226524 262
729787 729988 318
96017 96594 297
502379 502091 426
22616 22590 132
200477 200650 311
596864 596075 372
686799 686273 336
986563 986939 352
148780 148345 326
646302 646047 323
115667 115818 323
307872 307208 278
330440 330784 322
244777 244954 275
589069 589041 173
934302 934257 414
402350 402636 250
813945 813894 269
93611 93179 284
105572 105360 310
316461 316457 128
865673 865921 388
244227 244658 244
742885 742511 318
450355 450152 312
633355 633971 323
563717 563928 284
398511 398390 374
735203 735025 243
30907 30683 254
818485 818014 344
289938 289737 252
499059 499376 276
148918 148390 326
665289 665085 442
507742 507935 364
691782 691775 199
294778 294533 296
100763 100878 235
318677 318009 309
163 386 144
860194 860722 357
276020 276246 314
606176 606687 328
355392 355857 379
47254 47272 221
453708 453478 294
53510 53970 247
291287 291039 327
364640 364777 242
819713 819223 282
625040 625559 354
698747 698317 305
810399 810908 406
223003 223620 324
497026 497620 289
842302 842505 269
854105 854820 419
798937 798960 269
668805 668603 323
975807 975669 334
139323 139842 313
418145 418634 343
300565 300011 371
123515 123062 331
883241 883836 295
427635 427686 237
317904 317765 247
880770 880596 295
250110 250936 332
145327 145141 220
482793 482100 351
475146 475337 320
453428 453515 245
864615 864001 326
638876 638123 354
217023 217349 324
414319 414241 268
312491 312852 353
232072 232939 337
311280 311164 247
849005 849088 251
286823 286861 221
147468 147226 264
181063 181575 272
329969 329811 353
431758 431534 312
992831 992100 321
16910 16275 266
311574 311741 247
915214 915284 246
239459 239936 306
439599 439766 219
543610 543799 240
114236 114384 274
239209 239195 244
363176 363461 273
398318 398642 374
595346 595501 266
482067 482066 77
711987 711469 274
767738 767470 300
351328 351312 167
251867 251787 226
386668 386487 255
124711 124822 225
479932 479353 351
27695 27591 228
506967 506832 245
885483 885240 370
840760 840629 282
501263 501400 289
444349 444671 325
781555 781760 269
510688 510408 289
578081 578271 346
361794 361613 273
638461 638725 341
663825 663378 292
294943 294395 296
73513 73011 294
946925 946285 383
466658 466305 369
815846 815359 269
428352 428486 281
530951 530472 346
78943 78655 338
654157 654383 292
756730 756953 349
428889 428227 294
325007 325738 340
309864 309478 340
255347 255361 164
155077 155990 308
803913 803568 269
248331 248017 257
322833 322374 309
470799 470478 307
867529 867188 344
247421 247816 319
491959 491762 320
60569 60786 273
300023 300871 371
817669 817899 313
915336 915727 339
192566 192515 236
668639 668525 261
470828 470262 307
471150 471218 201
584326 584736 297
646910 646377 323
74715 74454 294
380611 380183 379
446087 446574 294
733768 733270 305
256121 256907 332
688290 688921 274
240336 240492 293
14189 14790 271
401819 401938 268
989910 989685 215
989815 989059 352
378826 378371 317
40131 40541 244
50001 70000 340
250001 260000 363
18000 15001 279
1001 5893 238
