..................
----------------------------------------------------------------------
Ran 18 tests in 12.034s

OK
Name             Stmts   Miss Branch BrPart  Cover   Missing
------------------------------------------------------------
Collatz.py          40      0     20      0   100%
TestCollatz.py      80      0      0      0   100%
------------------------------------------------------------
TOTAL              120      0     20      0   100%
