.............
----------------------------------------------------------------------
Ran 13 tests in 0.049s

OK
Name             Stmts   Miss Branch BrPart  Cover   Missing
------------------------------------------------------------
Collatz.py          38      5     16      4    83%   161->162, 162, 163->164, 164, 166->167, 167-168, 172->175, 175
TestCollatz.py      58      0      0      0   100%
------------------------------------------------------------
TOTAL               96      5     16      4    92%
