1 10 20
100 200 125
201 210 89
900 1000 174
999998 999999 259
2 1 2
200 199 120
150 200 125
300 1000 179
99 98 26
99900 99999 227
3 14 20
14 3 20
23 3 21
22 1 21
4245 665 238
76540 74567 325
2345 2345 152
123 456 144
2345 4567 238
2234 2456 183
12 65 113
2 20 21
20 2 21
19 19 21
100 100 26
2 4 8
5 9 20
10 11 15
1 1 1
123 345 144
56 34 113
345 564 142
10 20 21
1 90 116
1 102 119
20000 20034 212
201 2105 182
900 10004 262
1000 9005 262
9999 999 262
1 1504 182
23 12534 268
54 24534 282
54 12334 268
132000 132456 331
212 4567 238
456 3435 217
763 765 153
837 8743 262
766540 766543 150
2234 3568 217
2234 2789 209
122 456 144
42 46 30
5763 5266 236
100 200 125
2021 2100 157
900 1000 174
12 999 179
2 12 20
400 199 144
1250 200 182
820 1000 179
99 928 179
9900 9999 180
3 124 119
124 3 119
23 32 112
22 12 21
4245 6635 262
1654 2367 183
2345 3345 217
123 4536 238
2345 6789 262
2234 5456 238
6 10 20
123 3245 217
56543 55000 322
345 567 142
10 2 20
1 9 20
1 1 1
100 20 119
201 21 125
900 100 179
1000 90 179
999999 999990 259
1 50 112
23 134 122
54 1 113
54 12 113
12 23 21
12 45 112
456 35 144
76 86 111
87 86 31
765400 766543 331
234 4568 238
234 46789 324
12 46 112
4 4 3
576 466 142
