1 10 20
100 200 125
201 210 89
900 1000 174
86 99 119
178 888 179
5 12 20
9797 66566 340
4 33078 308
953 1021 156
844 7789 262
90 732 171
4555 8765 262
40076 82911 351
66854 32812 340
957 3845 238
562 745 171
50 99 119
8 20 21
55289 78003 351
867 4429 238
90 95 106
588 99322 351
601 3343 217
21 43 112
759 982 179
6 99273 351
4 17 20
5200 7600 262
47 48 105
90110 101010 341
1 233 128
88 765 171
9889 78280 351
9 6000 238
4070 34115 308
42 823 171
134 53134 340
3 99999 351
1 1 1
74 3 116
999999 999999 259
4223 67689 340
15 67 113
903 3213 217
65 900 179
22997 7356 279
613 786 171
798 1324 182
3131 8542 262
19654 99365 351
6577 43223 324
87 75432 340
89 98 119
2321 5643 238
113 898 179
842 79899 351
30 327 144
4467 91 238
75 67112 340
2346 726 183
5800 18981 279
5 702 145
666 6969 262
60909 70717 335
568 8 144
2 14 20
43 50035 324
10238 68380 340
65 897 179
66 4 113
3 97 119
648 89 144
3492 7429 262
454 879 179
1553 7864 262
952 78 179
1197 8664 262
206 244 128
8644 67339 340
95 78 111
1244 57647 340
10000 10000 30
785 864 148
19223 12903 279
7534 6739 257
1289 12937 268
23947 89321 351
42 67 113
7899 11289 268
18 78685 351
3 48 112
323 4930 238
489 948 179
67529 89243 351
5920 58329 340
904 8430 262
12 39 112
9 49 112
9099 94003 351
4902 5490 210
56 293 128
592 3888 238
7 6 17
4246 4068 202
10112 21481 279
7 318931 443
42425 549200 470
31413 439203 449
431945 931484 525
483 43180 324
710 850 153
2123 8429 262
988543 7897 525
