..................
----------------------------------------------------------------------
Ran 18 tests in 0.075s

OK
Name             Stmts   Miss Branch BrPart  Cover   Missing
------------------------------------------------------------
Collatz.py          35      0     12      0   100%
TestCollatz.py      80      0      0      0   100%
------------------------------------------------------------
TOTAL              115      0     12      0   100%
