1 10 20
100 200 125
201 210 89
900 1000 174
1 1000 179
1 1 1
2 3 8
999000 999999 396
5000 5500 192
9000 10000 260
1 10000 262
20 100 119
4567 5678 236
615488 618876 372
748846 756970 424
584201 589415 359
795930 804544 468
180104 180421 285
148089 151204 370
632934 642413 416
830778 837532 419
459643 465516 444
285375 288642 389
71746 72383 263
372305 377060 423
86749 88407 333
208014 215324 373
853012 859353 419
600783 608406 403
862131 872121 432
24023 29444 308
619793 622382 372
158353 164304 370
180760 186200 334
243023 243331 319
613956 621786 447
627221 636344 416
973111 973342 321
84210 84494 302
167479 169588 334
22887 29632 308
723491 733478 380
602316 602842 297
940405 949697 383
764936 767217 331
311497 316252 384
97358 105645 341
734829 738203 424
966435 972258 458
702941 703285 336
732130 735622 380
174939 182427 365
899412 904787 401
616198 621077 372
539059 545805 408
397624 403911 387
849535 850683 357
476804 484915 413
194248 201887 360
877275 885522 401
796137 796325 344
609933 618878 447
843170 847025 401
586237 593859 403
59397 65006 335
535625 539984 377
435234 437818 387
464813 474016 413
795107 799121 468
298069 303786 371
747018 751552 393
187201 195947 360
650013 650593 341
971639 977302 383
626137 633776 509
590198 594966 403
708921 718765 411
725243 732507 380
35804 38040 306
507417 507921 364
461785 467554 369
135097 143373 375
196627 204519 342
112464 115462 305
936045 943869 507
546922 547413 315
689543 691932 442
331737 340873 366
872360 877735 432
293514 294101 327
492900 494937 395
274568 284003 389
91695 92002 209
34048 43817 324
28281 29490 272
678022 684139 380
595000 597112 372
800423 806135 406
749356 759047 424
287939 294875 389
658621 659758 354
761506 770244 468
320744 323402 371
600257 610182 403
448021 454089 387
901070 910939 476
293586 303177 371
843330 853027 419
171114 174511 347
329019 332651 353
213914 215137 324
345686 347964 441
69867 79546 351
499154 507618 426
861111 865461 388
648452 657481 429
241984 247628 350
679443 681454 367
607451 616994 447
638677 639838 323
686736 686935 261
747546 756379 424
638590 643193 416
787575 797282 468
100445 105400 341
987321 997003 365
83449 88487 333
424577 429062 374
818241 827599 450
524386 530073 408
27953 35845 324
444455 453429 387
374450 377909 423
265850 267624 345
633384 635435 323
101594 110943 354
704847 710731 380
146253 154692 370
261443 265216 407
94270 101570 341
888602 889103 264
989103 992056 352
154173 154684 326
26971 33745 285
394217 401307 405
53144 54839 322
164575 166991 352
197223 203130 342
15374 16408 253
984240 990198 427
524369 526658 408
904482 909029 445
421928 423082 356
10473 12456 268
270947 274265 358
472682 481742 413
707892 716697 411
934462 937994 414
921997 927802 476
665894 666452 398
417268 424906 418
178435 182687 365
593238 601260 372
